{
    "compilerOptions": {
        "target": "es2017",
        "module": "commonjs",
        "allowSyntheticDefaultImports": true,
        "baseUrl": "./",
        "paths": {
            "src/*": ["src/*"]
        }
    }
}